settings data DataArray
(
    [shopify_signature] => 
    [shop] => merchmeet.myshopify.com
    [api_key] => c02965454cbfffd0f3f385a5f845bfe3
    [access_token] => df77d39f3087dab2df5da7879a12568e
    [code] => c54d48c7d4e7b3f2b6205d3f3c6acaa5
)
 DataArray
(
    [shopify_signature] => 
    [shop] => merchmeet.myshopify.com
    [api_key] => c02965454cbfffd0f3f385a5f845bfe3
    [access_token] => f88a79966330388e93e0dbb2c6aed42f
    [code] => 1daac1c583362fdfd360423a87135d60
)
 DataArray
(
    [shopify_signature] => 
    [shop] => merchmeet.myshopify.com
    [api_key] => c02965454cbfffd0f3f385a5f845bfe3
    [access_token] => f88a79966330388e93e0dbb2c6aed42f
    [code] => 1daac1c583362fdfd360423a87135d60
)
 DataArray
(
    [shopify_signature] => 
    [shop] => merchmeet.myshopify.com
    [api_key] => c02965454cbfffd0f3f385a5f845bfe3
    [access_token] => f88a79966330388e93e0dbb2c6aed42f
    [code] => 1daac1c583362fdfd360423a87135d60
)
 DataArray
(
    [shopify_signature] => 
    [shop] => merchmeet.myshopify.com
    [api_key] => c02965454cbfffd0f3f385a5f845bfe3
    [access_token] => f88a79966330388e93e0dbb2c6aed42f
    [code] => 1daac1c583362fdfd360423a87135d60
)
